<?xml version="1.0" encoding="UTF-8" standalone="no"?>
<svg
   xmlns:dc="http://purl.org/dc/elements/1.1/"
   xmlns:cc="http://creativecommons.org/ns#"
   xmlns:rdf="http://www.w3.org/1999/02/22-rdf-syntax-ns#"
   xmlns:svg="http://www.w3.org/2000/svg"
   xmlns="http://www.w3.org/2000/svg"
   xmlns:sodipodi="http://sodipodi.sourceforge.net/DTD/sodipodi-0.dtd"
   xmlns:inkscape="http://www.inkscape.org/namespaces/inkscape"
   width="100px"
   height="100px"
   viewBox="0 0 100 100"
   version="1.1"
   id="svg9"
   sodipodi:docname="icone_yakforms_clair.svg"
   inkscape:version="0.92.5 (2060ec1f9f, 2020-04-08)">
  <metadata
     id="metadata15">
    <rdf:RDF>
      <cc:Work
         rdf:about="">
        <dc:format>image/svg+xml</dc:format>
        <dc:type
           rdf:resource="http://purl.org/dc/dcmitype/StillImage" />
      </cc:Work>
    </rdf:RDF>
  </metadata>
  <defs
     id="defs13" />
  <sodipodi:namedview
     pagecolor="#ffffff"
     bordercolor="#666666"
     borderopacity="1"
     objecttolerance="10"
     gridtolerance="10"
     guidetolerance="10"
     inkscape:pageopacity="0"
     inkscape:pageshadow="2"
     inkscape:window-width="785"
     inkscape:window-height="480"
     id="namedview11"
     showgrid="false"
     inkscape:zoom="2.36"
     inkscape:cx="50"
     inkscape:cy="50"
     inkscape:window-x="0"
     inkscape:window-y="27"
     inkscape:window-maximized="0"
     inkscape:current-layer="icone_yakforms_clair" />
  <title
     id="title2">icone_yakforms_clair</title>
  <g
     id="icone_yakforms_clair"
     stroke="none"
     stroke-width="1"
     fill="none"
     fill-rule="evenodd">
    <g
       id="Group"
       transform="translate(13.000000, 13.000000)">
      <g
         id="Y"
         transform="translate(0.000000, 0.755859)">
        <path
           d="M31.7128371,54.2947378 C31.6361616,54.4787932 31.5917969,54.6733022 31.5917969,54.8828125 C31.5917969,56.4344618 31.5917969,58.7619358 31.5917969,61.8652344 C31.5266927,64.9251302 30.859375,67.0410156 29.5898438,68.2128906 C28.9713542,68.733724 28.2633464,69.0755208 27.4658203,69.2382813 C26.6682943,69.4010417 25.6591797,69.4824219 24.4384766,69.4824219 C23.2177734,69.4824219 21.9889323,69.3196615 20.7519531,68.9941406 C20.2636719,69.6126302 20.0195312,70.4752604 20.0195312,71.5820313 C20.0195312,74.0234375 21.875,75.2441406 25.5859375,75.2441406 L50.4882812,75.2441406 C52.9622396,75.2441406 54.5735677,75.374349 55.3222656,75.6347656 C55.843099,74.983724 56.1035156,74.1048177 56.1035156,72.9980469 C56.1035156,71.7936198 55.5175781,70.8658854 54.3457031,70.2148438 C53.6621094,69.7916667 51.4648438,69.2871094 47.7539062,68.7011719 C44.6614583,68.1803385 43.1152344,66.5201823 43.1152344,63.7207031 L43.1152344,55.2421875 L42.8254515,54.263301 M68.1640625,6.93359375 C68.7825521,6.4453125 69.4824219,6.20117187 70.2636719,6.20117187 C71.0449219,6.20117187 71.9889323,6.36393229 73.0957031,6.68945312 C73.6816406,6.03841146 73.9746094,5.06184896 73.9746094,3.75976562 C73.9746094,3.07617187 73.7955729,2.49023437 73.4375,2.00195312 C72.6236979,0.927734375 70.7356771,0.390625 67.7734375,0.390625 L50.8789063,0.390625 C48.4049479,0.390625 46.7936198,0.260416667 46.0449219,-2.84217094e-14 C45.5566406,0.48828125 45.3125,1.37532552 45.3125,2.66113281 C45.3125,3.9469401 45.9635417,4.86653646 47.265625,5.41992187 C47.8515625,5.68033854 48.5351563,5.89192708 49.3164062,6.0546875 C49.8372396,6.16319444 50.6395671,6.45616319 51.7233887,6.93359375 C62.2715115,7.25911458 67.7517361,7.25911458 68.1640625,6.93359375 Z M32.6127687,30.9672022 C31.7745449,29.520548 31.0409737,28.2545093 30.4120552,27.169086 C28.8187512,24.4192718 26.4287954,20.2945504 23.2421875,14.7949219 C21.9075521,12.6464844 21.2402344,10.8235677 21.2402344,9.32617187 C21.2402344,7.24283854 22.5911458,6.20117187 25.2929688,6.20117187 C26.6601562,6.20117187 27.8971354,6.36393229 29.0039062,6.68945312 C29.6223958,6.00585937 29.9316406,5.16764323 29.9316406,4.17480469 C29.9316406,3.18196615 29.7200521,2.44140625 29.296875,1.953125 C28.4505208,0.911458333 26.4322917,0.390625 23.2421875,0.390625 L5.61523438,0.390625 C3.14127604,0.390625 1.52994792,0.260416667 0.78125,-2.84217094e-14 C0.260416667,0.651041667 0,1.64388021 0,2.97851562 C0,3.88997396 0.455729167,4.60611979 1.3671875,5.12695312 C1.7578125,5.38736979 2.20540365,5.59895833 2.70996094,5.76171875 C3.21451823,5.92447917 3.90625,6.22558594 4.78515625,6.66503906 C5.6640625,7.10449219 6.75455729,8.38216146 8.05664062,10.4980469 L22.0205596,33.6746758 L23.2439537,35.7052054 L32.6127687,30.9672022 Z"
           id="Shape"
           fill="#FFFFFF"
           fill-rule="nonzero" />
        <path
           d="m 33.816406,36.723144 -1.476011,-0.681983 -1.523989,0.681983 -4,2.230111 7,11.072943 c 4.490866,1.507639 7.411863,1.507639 8.762992,0 6.561,-11.142904 14.080956,-24.070257 22.559867,-38.782057 h -9.035749 l -17.1875,30.601562 h -1.928711 z"
           id="Path-4"
           inkscape:connector-curvature="0"
           style="fill:#5e2644" />
      </g>
    </g>
  </g>
</svg>
